{
  "project_info": {
    "project_number": "156685318513",
    "firebase_url": "https://beautyhub-3488c.firebaseio.com",
    "project_id": "beautyhub-3488c",
    "storage_bucket": "beautyhub-3488c.appspot.com"
  },
  "client": [
    {
      "client_info": {
        "mobilesdk_app_id": "1:156685318513:android:e9f2df7dd5ca09af",
        "android_client_info": {
          "package_name": "com.example.beautyhub"
        }
      },
      "oauth_client": [
        {
          "client_id": "156685318513-h3beeq8i1dkcspklhk46aptg6hjg5o5c.apps.googleusercontent.com",
          "client_type": 1,
          "android_info": {
            "package_name": "com.example.beautyhub",
            "certificate_hash": "322650a7ab5275693212a6b816eeea8b4a0307ea"
          }
        },
        {
          "client_id": "156685318513-0654f7feb6m6hm1nkdbepv70usekcj30.apps.googleusercontent.com",
          "client_type": 3
        }
      ],
      "api_key": [
        {
          "current_key": "AIzaSyBcyDwNbOJGqCqqRBYaxufgWle7qz_4Fms"
        }
      ],
      "services": {
        "analytics_service": {
          "status": 1
        },
        "appinvite_service": {
          "status": 2,
          "other_platform_oauth_client": [
            {
              "client_id": "156685318513-0654f7feb6m6hm1nkdbepv70usekcj30.apps.googleusercontent.com",
              "client_type": 3
            }
          ]
        },
        "ads_service": {
          "status": 2
        }
      }
    }
  ],
  "configuration_version": "1"
}